INSERT INTO "UserBaskets" ("UserBasketId", "UserId", "IsActive") VALUES
    (1, 'aafa33cc-4c0a-4f6a-b3ac-33c4286a5b42', True),
    (2, 'de332f77-3855-4b8b-9ef4-9937cf946c39', False),
    (3, '401e0501-b74a-4d59-815f-1e9fee1c59bb', True);